{
  "project_info": {
    "project_number": "346895089037",
    "project_id": "smartrenja",
    "storage_bucket": "smartrenja.appspot.com"
  },
  "client": [
    {
      "client_info": {
        "mobilesdk_app_id": "1:346895089037:android:fdfc810a3bdb4b364b11c4",
        "android_client_info": {
          "package_name": "com.vndr.smartrenja"
        }
      },
      "oauth_client": [
        {
          "client_id": "346895089037-8ka6hg8n90i2bgrtll9k1eqjanrkoqn4.apps.googleusercontent.com",
          "client_type": 3
        }
      ],
      "api_key": [
        {
          "current_key": "AIzaSyBZjYeKd_DHdn55Rew0i7wgp3NkF3TZKJo"
        }
      ],
      "services": {
        "appinvite_service": {
          "other_platform_oauth_client": [
            {
              "client_id": "346895089037-8ka6hg8n90i2bgrtll9k1eqjanrkoqn4.apps.googleusercontent.com",
              "client_type": 3
            }
          ]
        }
      }
    }
  ],
  "configuration_version": "1"
}